ARRAY_ID,chemical,vehicle,route
95767.CEL,3-METHYLCHOLANTHRENE,CMC_.5_%,ORAL_GAVAGE
95756.CEL,3-METHYLCHOLANTHRENE,CMC_.5_%,ORAL_GAVAGE
95720.CEL,3-METHYLCHOLANTHRENE,CMC_.5_%,ORAL_GAVAGE
95788.CEL,3-METHYLCHOLANTHRENE,CMC_.5_%,ORAL_GAVAGE
96010.CEL,3-METHYLCHOLANTHRENE,CMC_.5_%,ORAL_GAVAGE
96000.CEL,3-METHYLCHOLANTHRENE,CMC_.5_%,ORAL_GAVAGE
95752.CEL,3-METHYLCHOLANTHRENE,CMC_.5_%,ORAL_GAVAGE
95784.CEL,3-METHYLCHOLANTHRENE,CMC_.5_%,ORAL_GAVAGE
95995.CEL,3-METHYLCHOLANTHRENE,CMC_.5_%,ORAL_GAVAGE
95051.CEL,CLOTRIMAZOLE,CORN_OIL_100_%,ORAL_GAVAGE
95004.CEL,CLOTRIMAZOLE,CORN_OIL_100_%,ORAL_GAVAGE
95006.CEL,CLOTRIMAZOLE,CORN_OIL_100_%,ORAL_GAVAGE
94364.CEL,CLOTRIMAZOLE,CORN_OIL_100_%,ORAL_GAVAGE
94591.CEL,CLOTRIMAZOLE,CORN_OIL_100_%,ORAL_GAVAGE
94491.CEL,CLOTRIMAZOLE,CORN_OIL_100_%,ORAL_GAVAGE
96638.CEL,CLOTRIMAZOLE,CORN_OIL_100_%,ORAL_GAVAGE
94981.CEL,CLOTRIMAZOLE,CORN_OIL_100_%,ORAL_GAVAGE
94476.CEL,CLOTRIMAZOLE,CORN_OIL_100_%,ORAL_GAVAGE
94362.CEL,CLOTRIMAZOLE,CORN_OIL_100_%,ORAL_GAVAGE
94726.CEL,CLOTRIMAZOLE,CORN_OIL_100_%,ORAL_GAVAGE
94592.CEL,CLOTRIMAZOLE,CORN_OIL_100_%,ORAL_GAVAGE
94982.CEL,CLOTRIMAZOLE,CORN_OIL_100_%,ORAL_GAVAGE
94351.CEL,CLOTRIMAZOLE,CORN_OIL_100_%,ORAL_GAVAGE
94585.CEL,CLOTRIMAZOLE,CORN_OIL_100_%,ORAL_GAVAGE
94809.CEL,CLOTRIMAZOLE,CORN_OIL_100_%,ORAL_GAVAGE
95632.CEL,CLOTRIMAZOLE,CORN_OIL_100_%,ORAL_GAVAGE
95067.CEL,CLOTRIMAZOLE,CORN_OIL_100_%,ORAL_GAVAGE
94687.CEL,CLOTRIMAZOLE,CORN_OIL_100_%,ORAL_GAVAGE
94580.CEL,CLOTRIMAZOLE,CORN_OIL_100_%,ORAL_GAVAGE
95633.CEL,CLOTRIMAZOLE,CORN_OIL_100_%,ORAL_GAVAGE
96061.CEL,CLOTRIMAZOLE,CORN_OIL_100_%,ORAL_GAVAGE
94439.CEL,CLOTRIMAZOLE,CORN_OIL_100_%,ORAL_GAVAGE
94528.CEL,CLOTRIMAZOLE,CORN_OIL_100_%,ORAL_GAVAGE
95731.CEL,CLOTRIMAZOLE,CORN_OIL_100_%,ORAL_GAVAGE
94538.CEL,CLOTRIMAZOLE,CORN_OIL_100_%,ORAL_GAVAGE
94576.CEL,CLOTRIMAZOLE,CORN_OIL_100_%,ORAL_GAVAGE
95046.CEL,CLOTRIMAZOLE,CORN_OIL_100_%,ORAL_GAVAGE
94559.CEL,CLOTRIMAZOLE,CORN_OIL_100_%,ORAL_GAVAGE
96042.CEL,CHLOROFORM,CORN_OIL_100_%,ORAL_GAVAGE
95933.CEL,CHLOROFORM,CORN_OIL_100_%,ORAL_GAVAGE
95932.CEL,CHLOROFORM,CORN_OIL_100_%,ORAL_GAVAGE
96750.CEL,CHLOROFORM,CORN_OIL_100_%,ORAL_GAVAGE
96754.CEL,CHLOROFORM,CORN_OIL_100_%,ORAL_GAVAGE
96789.CEL,CHLOROFORM,CORN_OIL_100_%,ORAL_GAVAGE
96787.CEL,CHLOROFORM,CORN_OIL_100_%,ORAL_GAVAGE
96792.CEL,CHLOROFORM,CORN_OIL_100_%,ORAL_GAVAGE
96791.CEL,CHLOROFORM,CORN_OIL_100_%,ORAL_GAVAGE
