array_id,chemical,vehicle,route
91881.CEL,BETA-ESTRADIOL,CORN_OIL_100_%,ORAL_GAVAGE
92115.CEL,BETA-ESTRADIOL,CORN_OIL_100_%,ORAL_GAVAGE
92113.CEL,BETA-ESTRADIOL,CORN_OIL_100_%,ORAL_GAVAGE
92112.CEL,BETA-ESTRADIOL,CORN_OIL_100_%,ORAL_GAVAGE
92046.CEL,BETA-ESTRADIOL,CORN_OIL_100_%,ORAL_GAVAGE
92114.CEL,BETA-ESTRADIOL,CORN_OIL_100_%,ORAL_GAVAGE
91929.CEL,BETA-ESTRADIOL,CORN_OIL_100_%,ORAL_GAVAGE
91916.CEL,BETA-ESTRADIOL,CORN_OIL_100_%,ORAL_GAVAGE
92014.CEL,BETA-ESTRADIOL,CORN_OIL_100_%,ORAL_GAVAGE
97488.CEL,BEZAFIBRATE,CORN_OIL_100_%,ORAL_GAVAGE
97021.CEL,BEZAFIBRATE,CORN_OIL_100_%,ORAL_GAVAGE
97462.CEL,BEZAFIBRATE,CORN_OIL_100_%,ORAL_GAVAGE
97440.CEL,BEZAFIBRATE,CORN_OIL_100_%,ORAL_GAVAGE
97428.CEL,BEZAFIBRATE,CORN_OIL_100_%,ORAL_GAVAGE
97373.CEL,BEZAFIBRATE,CORN_OIL_100_%,ORAL_GAVAGE
97074.CEL,BEZAFIBRATE,CORN_OIL_100_%,ORAL_GAVAGE
97020.CEL,BEZAFIBRATE,CORN_OIL_100_%,ORAL_GAVAGE
92568.CEL,BEZAFIBRATE,CORN_OIL_100_%,ORAL_GAVAGE
96861.CEL,BEZAFIBRATE,CORN_OIL_100_%,ORAL_GAVAGE
92649.CEL,BEZAFIBRATE,CORN_OIL_100_%,ORAL_GAVAGE
97513.CEL,BEZAFIBRATE,CORN_OIL_100_%,ORAL_GAVAGE
92540.CEL,BEZAFIBRATE,CORN_OIL_100_%,ORAL_GAVAGE
92176.CEL,BEZAFIBRATE,CORN_OIL_100_%,ORAL_GAVAGE
92124.CEL,BEZAFIBRATE,CORN_OIL_100_%,ORAL_GAVAGE
92011.CEL,BEZAFIBRATE,CORN_OIL_100_%,ORAL_GAVAGE
96958.CEL,BEZAFIBRATE,CORN_OIL_100_%,ORAL_GAVAGE
97870.CEL,BEZAFIBRATE,CORN_OIL_100_%,ORAL_GAVAGE
