id,Prog,Stat,Bio,Bioinf,Prog_1,Prog_2,Prog_3,Prog_4,Prog_5,Prog_6,Prog_7,Prog_8,Stat_1,Stat_2,Stat_3,Stat_4,Stat_5,Stat_6,Bio_1,Bio_2,Bio_3,Bio_4,Bio_5,Bio_6,Bio_7,Bio_8,Bio_9,Bioinf_1,Bioinf_2,Bioinf_3,Bioinf_4,Bioinf_5,Bioinf_6,Bioinf_7,Bioinf_8
1,3.0,3.0,3.7,3.6,3,2,3,4,4,2,3,3,3,3,2,4,3,3,4,4,4,4,4,3,3,4,3,4,3,3,4,4,3,4,4
2,4.3,3.7,3.2,3.5,5,4,3,5,4,4,5,4,4,4,4,4,3,3,4,4,4,3,3,3,4,2,2,2,4,3,4,4,5,3,3
3,4.1,3.8,2.6,2.3,4,4,4,5,3,5,5,3,4,5,3,4,4,3,3,3,3,3,3,2,2,2,2,3,2,2,2,3,2,2,2
4,4.5,4.7,4.2,5.0,5,4,3,5,5,5,5,4,5,5,4,5,4,5,5,5,5,5,5,5,5,2,1,5,5,5,5,5,5,5,5
5,3.8,3.3,4.2,3.6,5,4,3,4,4,3,4,3,3,3,3,4,4,3,4,5,5,5,4,4,4,4,3,4,4,3,3,4,4,4,3
6,3.6,4.0,3.2,2.8,5,4,3,4,4,3,5,1,4,4,4,4,4,4,4,4,4,4,2,2,4,2,3,4,2,2,3,4,4,1,2
7,1.6,1.8,3.3,3.3,2,2,1,2,1,1,2,2,3,2,1,2,1,2,5,5,4,4,3,2,3,2,2,3,3,3,4,4,3,3,3
8,3.4,4.7,4.0,4.0,4,4,3,4,4,2,4,2,5,5,5,5,5,3,4,4,4,4,4,4,4,4,4,4,4,4,4,5,4,4,3
9,2.5,2.5,3.3,1.5,3,3,2,3,3,2,2,2,3,4,2,2,2,2,4,4,3,3,4,3,4,3,2,2,2,1,1,1,1,1,3
10,3.4,3.7,3.7,3.1,4,4,2,3,4,3,4,3,4,4,3,4,4,3,5,5,5,4,4,3,3,2,2,4,4,2,3,3,3,2,4
11,2.8,3.5,4.6,3.4,4,3,2,2,2,2,4,3,3,4,4,3,4,3,5,5,5,5,4,4,4,5,4,4,4,3,3,3,3,3,4
12,2.0,2.7,3.2,1.6,2,2,2,2,2,2,2,2,3,3,3,2,2,3,4,4,3,3,3,3,3,3,3,2,2,2,2,1,1,1,2
13,4.3,3.5,4.4,4.1,5,4,3,5,5,5,4,3,4,4,3,3,3,4,5,5,5,3,4,5,5,4,4,4,4,4,4,5,4,4,4
14,3.0,3.0,4.0,3.0,4,3,2,3,3,3,3,3,3,3,3,3,3,3,4,4,4,4,4,4,4,4,4,3,3,3,3,3,3,3,3
15,3.8,3.7,4.1,3.6,5,4,3,4,3,3,5,3,5,5,3,3,3,3,4,5,5,5,3,4,4,4,3,4,4,4,4,4,3,3,3
16,3.1,2.7,4.0,3.1,4,3,3,4,4,2,3,2,3,3,3,3,2,2,4,4,4,4,4,4,4,4,4,4,4,2,3,3,3,3,3
17,2.9,2.8,3.9,3.3,4,3,3,3,3,1,4,2,4,4,3,2,2,2,5,5,5,5,3,3,3,3,3,3,3,3,4,4,3,3,3
18,2.8,3.3,2.7,2.5,3,3,3,3,3,2,3,2,4,4,3,3,3,3,3,3,3,3,2,2,2,3,3,3,3,3,2,2,2,2,3
19,2.9,3.0,4.0,3.1,4,3,2,4,4,2,3,1,3,3,3,3,3,3,4,4,4,4,4,4,4,4,4,3,3,3,4,4,3,3,2
20,3.4,4.8,3.3,2.5,4,5,3,4,4,1,5,1,5,5,5,5,5,4,4,4,4,4,3,3,4,3,1,2,2,3,3,3,1,4,2
21,3.1,3.3,3.4,3.5,4,3,2,4,3,3,3,3,4,4,3,3,3,3,4,5,4,4,3,3,3,3,2,3,3,3,4,5,3,3,4
22,3.4,3.0,4.1,4.3,4,4,3,3,3,2,4,4,3,4,3,3,3,2,5,5,5,5,3,3,3,4,4,5,5,4,4,4,4,4,4
23,3.3,3.2,4.1,3.3,3,3,2,4,4,3,4,3,3,4,3,3,3,3,5,5,5,5,3,3,4,3,4,3,3,3,4,4,3,3,3
24,3.3,3.7,3.6,3.1,4,3,2,3,4,2,4,4,4,4,4,4,4,2,5,5,4,4,4,4,2,2,2,2,3,3,5,5,2,3,2
25,1.8,1.7,2.2,2.0,3,2,1,1,3,1,2,1,2,2,1,1,1,3,4,3,3,3,2,1,2,1,1,2,3,2,3,2,1,1,2
26,2.8,2.8,3.8,3.8,4,2,2,3,3,2,3,3,3,3,3,3,3,2,4,5,4,4,5,3,3,3,3,4,4,4,4,4,4,3,3
27,2.6,3.0,2.0,1.9,4,2,2,4,2,1,4,2,3,2,2,4,3,4,3,3,2,2,2,1,2,2,1,2,2,2,2,3,1,1,2
28,3.3,3.2,3.6,2.9,4,3,3,4,5,2,3,2,3,4,3,3,3,3,4,4,3,4,3,3,4,3,4,2,3,3,4,4,2,2,3
29,3.1,2.7,4.0,4.6,5,2,2,4,3,2,4,3,4,3,1,3,2,3,5,5,4,4,4,5,5,2,2,5,5,5,4,5,5,5,3
30,4.1,4.2,3.4,4.1,4,5,3,4,4,4,5,4,4,4,4,4,4,5,3,4,4,4,4,3,3,3,3,5,5,5,4,4,3,4,3
31,2.6,2.0,3.7,3.4,3,3,2,3,2,2,3,3,3,2,1,3,1,2,4,4,4,4,4,3,3,4,3,3,2,4,4,4,3,3,4
32,3.6,3.7,2.2,2.0,5,4,3,4,4,3,4,2,4,3,3,4,4,4,3,2,2,2,2,2,2,2,3,2,2,2,2,2,2,2,2
33,3.1,2.3,2.9,2.5,4,3,3,4,4,2,3,2,3,3,3,2,1,2,4,4,4,4,2,2,3,2,1,2,2,3,3,3,2,3,2
34,3.4,3.3,3.2,2.8,4,4,2,4,4,2,4,3,4,4,2,4,3,3,4,5,4,4,3,2,3,2,2,3,2,3,4,4,2,2,2
35,1.9,2.3,1.4,1.1,3,2,2,2,2,2,1,1,2,2,2,3,2,3,2,2,2,2,1,1,1,1,1,1,1,1,1,1,1,1,2
36,3.1,2.8,1.8,2.9,4,2,2,4,4,4,4,1,3,3,3,3,3,2,1,3,3,2,1,1,3,1,1,3,3,3,2,4,2,4,2
37,2.3,2.2,3.8,3.0,2,3,2,2,2,2,3,2,3,3,1,3,1,2,5,5,5,5,3,3,3,3,2,3,3,3,3,3,3,3,3
38,2.9,3.5,4.6,3.9,3,2,2,3,3,3,3,4,4,4,4,3,3,3,5,5,5,5,5,5,2,4,5,4,4,4,4,4,3,4,4
39,2.3,2.7,2.9,2.1,3,3,2,2,2,2,2,2,3,3,3,3,2,2,4,4,4,4,2,2,2,2,2,2,2,2,2,2,2,2,3
40,2.6,3.2,2.7,2.6,3,2,2,4,4,2,2,2,3,4,2,4,4,2,3,4,4,3,2,1,3,2,2,2,3,3,3,4,2,2,2
41,2.5,2.7,2.3,2.0,3,2,3,3,3,2,2,2,3,3,2,3,3,2,3,3,3,2,2,2,2,2,2,2,2,2,2,2,2,2,2
42,2.9,3.3,3.1,3.0,4,3,2,3,3,2,4,2,4,4,4,3,3,2,4,4,3,3,3,3,3,3,2,3,3,3,3,3,3,3,3
43,3.0,4.5,4.8,4.9,4,2,2,4,4,2,3,3,5,5,5,5,4,3,5,5,5,5,5,5,5,4,4,5,5,5,5,4,5,5,5
44,3.0,2.7,3.2,3.0,5,4,3,4,3,1,3,1,3,3,3,3,2,2,3,4,3,3,3,3,3,4,3,3,4,2,2,4,3,3,3
45,3.1,3.2,2.6,2.8,3,5,3,3,3,3,4,1,4,3,3,3,3,3,3,3,3,3,2,2,3,2,2,3,3,3,3,3,2,3,2
46,2.1,2.5,3.4,1.6,4,2,2,2,2,2,2,1,3,4,2,2,2,2,5,4,4,4,3,2,3,2,4,2,2,2,2,1,1,1,2
47,3.4,2.8,3.8,3.3,4,3,3,4,3,3,4,3,3,3,3,3,2,3,4,5,5,4,3,3,3,4,3,4,4,3,3,3,3,3,3
48,3.6,3.2,3.1,3.1,4,3,2,4,4,4,4,4,4,4,3,3,3,2,4,4,4,4,3,2,3,2,2,3,3,3,3,4,3,3,3
49,2.1,2.2,3.3,3.3,3,2,2,3,3,1,2,1,3,3,2,1,1,3,4,4,4,3,3,3,3,3,3,3,3,3,4,4,3,3,3
